%YAML 1.1
%TAG !u! tag:unity3d.com,2011:
--- !u!1001 &6761702686856077368
PrefabInstance:
  m_ObjectHideFlags: 0
  serializedVersion: 2
  m_Modification:
    m_TransformParent: {fileID: 0}
    m_Modifications:
    - target: {fileID: 1264005765849138074, guid: 98d9a800a07a69d4aa185933a5205a9e, type: 3}
      propertyPath: m_Mass
      value: 1
      objectReference: {fileID: 0}
    - target: {fileID: 1264005765849138075, guid: 98d9a800a07a69d4aa185933a5205a9e, type: 3}
      propertyPath: m_Name
      value: Asteroid SmallVariant
      objectReference: {fileID: 0}
    - target: {fileID: 1264005765849138077, guid: 98d9a800a07a69d4aa185933a5205a9e, type: 3}
      propertyPath: m_SphereRadius
      value: 0.17
      objectReference: {fileID: 0}
    - target: {fileID: 1264005765849138077, guid: 98d9a800a07a69d4aa185933a5205a9e, type: 3}
      propertyPath: m_Capsule.Height
      value: 0.34
      objectReference: {fileID: 0}
    - target: {fileID: 1264005765849138077, guid: 98d9a800a07a69d4aa185933a5205a9e, type: 3}
      propertyPath: m_Capsule.Radius
      value: 0.17
      objectReference: {fileID: 0}
    - target: {fileID: 1264005765849138077, guid: 98d9a800a07a69d4aa185933a5205a9e, type: 3}
      propertyPath: m_Cylinder.Height
      value: 0.34
      objectReference: {fileID: 0}
    - target: {fileID: 1264005765849138077, guid: 98d9a800a07a69d4aa185933a5205a9e, type: 3}
      propertyPath: m_Cylinder.Radius
      value: 0.17
      objectReference: {fileID: 0}
    - target: {fileID: 1264005765849138077, guid: 98d9a800a07a69d4aa185933a5205a9e, type: 3}
      propertyPath: m_PrimitiveSize.x
      value: 0.34
      objectReference: {fileID: 0}
    - target: {fileID: 1264005765849138077, guid: 98d9a800a07a69d4aa185933a5205a9e, type: 3}
      propertyPath: m_PrimitiveSize.y
      value: 0.34
      objectReference: {fileID: 0}
    - target: {fileID: 1264005765849138077, guid: 98d9a800a07a69d4aa185933a5205a9e, type: 3}
      propertyPath: m_PrimitiveSize.z
      value: 0.34
      objectReference: {fileID: 0}
    - target: {fileID: 1264005765849138079, guid: 98d9a800a07a69d4aa185933a5205a9e, type: 3}
      propertyPath: m_RootOrder
      value: 0
      objectReference: {fileID: 0}
    - target: {fileID: 1264005765849138079, guid: 98d9a800a07a69d4aa185933a5205a9e, type: 3}
      propertyPath: m_LocalPosition.x
      value: 0.846
      objectReference: {fileID: 0}
    - target: {fileID: 1264005765849138079, guid: 98d9a800a07a69d4aa185933a5205a9e, type: 3}
      propertyPath: m_LocalPosition.y
      value: -0.85
      objectReference: {fileID: 0}
    - target: {fileID: 1264005765849138079, guid: 98d9a800a07a69d4aa185933a5205a9e, type: 3}
      propertyPath: m_LocalPosition.z
      value: 0
      objectReference: {fileID: 0}
    - target: {fileID: 1264005765849138079, guid: 98d9a800a07a69d4aa185933a5205a9e, type: 3}
      propertyPath: m_LocalRotation.w
      value: 1
      objectReference: {fileID: 0}
    - target: {fileID: 1264005765849138079, guid: 98d9a800a07a69d4aa185933a5205a9e, type: 3}
      propertyPath: m_LocalRotation.x
      value: 0
      objectReference: {fileID: 0}
    - target: {fileID: 1264005765849138079, guid: 98d9a800a07a69d4aa185933a5205a9e, type: 3}
      propertyPath: m_LocalRotation.y
      value: 0
      objectReference: {fileID: 0}
    - target: {fileID: 1264005765849138079, guid: 98d9a800a07a69d4aa185933a5205a9e, type: 3}
      propertyPath: m_LocalRotation.z
      value: 0
      objectReference: {fileID: 0}
    - target: {fileID: 1264005765849138079, guid: 98d9a800a07a69d4aa185933a5205a9e, type: 3}
      propertyPath: m_LocalEulerAnglesHint.x
      value: 0
      objectReference: {fileID: 0}
    - target: {fileID: 1264005765849138079, guid: 98d9a800a07a69d4aa185933a5205a9e, type: 3}
      propertyPath: m_LocalEulerAnglesHint.y
      value: 0
      objectReference: {fileID: 0}
    - target: {fileID: 1264005765849138079, guid: 98d9a800a07a69d4aa185933a5205a9e, type: 3}
      propertyPath: m_LocalEulerAnglesHint.z
      value: 0
      objectReference: {fileID: 0}
    - target: {fileID: 6700347474943080521, guid: 98d9a800a07a69d4aa185933a5205a9e, type: 3}
      propertyPath: m_Sprite
      value: 
      objectReference: {fileID: 21300000, guid: 5c3f6bdf8e2b6c24bb2f3da48ccacbcf, type: 3}
    m_RemovedComponents: []
  m_SourcePrefab: {fileID: 100100000, guid: 98d9a800a07a69d4aa185933a5205a9e, type: 3}
